<?xml version="1.0" encoding="UTF-8"?>
<svg width="25px" height="16px" viewBox="0 0 25 16" version="1.1" xmlns="http://www.w3.org/2000/svg" xmlns:xlink="http://www.w3.org/1999/xlink">
    <!-- Generator: Sketch 40.2 (33826) - http://www.bohemiancoding.com/sketch -->
    <title>arrow</title>
    <desc>Created with Sketch.</desc>
    <defs></defs>
    <g id="Page-1" stroke="none" stroke-width="1" fill="none" fill-rule="evenodd">
        <g id="arrow" fill="#B1B1B1">
            <g id="Capa_1">
                <g id="keyboard-arrow-down">
                    <polygon id="Shape" points="2.91666667 0.0637254902 12.5 9.64714052 22.0833333 0.0637254902 25 2.98047386 12.5 15.4803922 0 2.98047386"></polygon>
                </g>
            </g>
        </g>
    </g>
</svg>