<?xml version="1.0" encoding="UTF-8"?>
<svg width="20px" height="28px" viewBox="0 0 20 28" version="1.1" xmlns="http://www.w3.org/2000/svg" xmlns:xlink="http://www.w3.org/1999/xlink">
    <!-- Generator: Sketch 40.2 (33826) - http://www.bohemiancoding.com/sketch -->
    <title>Group 4</title>
    <desc>Created with Sketch.</desc>
    <defs>
        <polygon id="path-1" points="9.66481338 26.8965517 0 26.8965517 0 0.392413793 9.66481338 0.392413793 19.3296268 0.392413793 19.3296268 26.8965517 9.66481338 26.8965517"></polygon>
    </defs>
    <g id="Page-1" stroke="none" stroke-width="1" fill="none" fill-rule="evenodd">
        <g id="Group-4">
            <g id="Group-3" transform="translate(0.000000, 0.297241)">
                <mask id="mask-2" fill="white">
                    <use xlink:href="#path-1"></use>
                </mask>
                <g id="Clip-2"></g>
                <path d="M12.1035862,0.392413793 C14.2546207,2.71172414 16.3925517,5.04551724 18.5691034,7.33724138 C19.1097931,7.9137931 19.3422069,8.49034483 19.3291034,9.3 C19.3035862,15.1613793 19.316,21.022069 19.316,26.8965517 L0.409103448,26.8965517 C-0.0164137931,26.3889655 0.00979310345,25.7572414 0.00979310345,25.14 C-0.00331034483,17.4806897 -0.00331034483,9.80827586 0.00979310345,2.14896552 C0.00979310345,1.53172414 -0.0164137931,0.9 0.409103448,0.392413793 L12.1035862,0.392413793 Z" id="Fill-1" fill="#B2B2B1" mask="url(#mask-2)"></path>
            </g>
            <path d="M1.40062069,13.8113103 C1.40062069,10.1878621 1.42613793,6.56441379 1.38751724,2.94096552 C1.37510345,2.04855172 1.58062069,1.70510345 2.48268966,1.71889655 C5.09717241,1.77406897 7.69855172,1.77406897 10.3130345,1.71889655 C11.1247586,1.70510345 11.3951034,1.9657931 11.3695862,2.84441379 C11.3178621,4.56027586 11.4082069,6.28993103 11.3309655,8.00510345 C11.2923448,8.96648276 11.6268276,9.19958621 12.464069,9.172 C14.0744138,9.10372414 15.6971724,9.1857931 17.3068276,9.14441379 C18.0413103,9.11682759 18.324069,9.33682759 18.3116552,10.174069 C18.2730345,15.169931 18.2854483,20.1526897 18.3116552,25.1485517 C18.3116552,25.9037241 18.0923448,26.1368276 17.384069,26.1368276 C12.3737241,26.1092414 7.35096552,26.1092414 2.34062069,26.1368276 C1.55510345,26.1368276 1.362,25.8347586 1.37510345,25.0526897 C1.42613793,21.3188966 1.40062069,17.5582069 1.40062069,13.8113103" id="Fill-4" fill="#FEFEFE"></path>
            <path d="M12.3482759,2.66613793 C14.1,4.53303448 15.6972414,6.23510345 17.4358621,8.10131034 C15.8255172,8.10131034 14.3062069,8.11510345 12.7731034,8.08751724 C12.2965517,8.07372414 12.3482759,7.63510345 12.3482759,7.29165517 L12.3482759,2.66613793 Z" id="Fill-6" fill="#FEFEFE"></path>
            <text id="PDF" font-family="BrandonGrotesque-Bold, Brandon Grotesque" font-size="6" font-weight="bold" fill="#B1B1B2">
                <tspan x="4.48999023" y="19.2617172">PDF</tspan>
            </text>
        </g>
    </g>
</svg>