<?xml version="1.0" encoding="UTF-8"?>
<svg width="25px" height="19px" viewBox="0 0 25 19" version="1.1" xmlns="http://www.w3.org/2000/svg" xmlns:xlink="http://www.w3.org/1999/xlink">
    <!-- Generator: Sketch 40.2 (33826) - http://www.bohemiancoding.com/sketch -->
    <title>Page 1</title>
    <desc>Created with Sketch.</desc>
    <defs>
        <polygon id="path-1" points="18.6716 19 0 19 0 0.1504 18.6716 0.1504"></polygon>
        <polygon id="path-3" points="2.73 3.03865226 2.73 0.638752028 0.2262 0.638752028 0.2262 3.03865226 2.73 3.03865226"></polygon>
    </defs>
    <g id="Page-1" stroke="none" stroke-width="1" fill="none" fill-rule="evenodd">
        <g transform="translate(0.000000, -1.000000)">
            <path d="M14.4477,19.3808 L4.2237,19.3808 C2.1587,19.3808 0.4697,17.6918 0.4697,15.6268 L0.4697,5.2238 C0.4697,3.1588 2.1587,1.4698 4.2237,1.4698 L14.4477,1.4698 C16.5127,1.4698 18.2017,3.1588 18.2017,5.2238 L18.2017,15.6268 C18.2017,17.6918 16.5127,19.3808 14.4477,19.3808" id="Fill-1" fill="#FEFEFE"></path>
            <g id="Group-5" transform="translate(0.000000, 0.850100)">
                <mask id="mask-2" fill="white">
                    <use xlink:href="#path-1"></use>
                </mask>
                <g id="Clip-4"></g>
                <path d="M4.2236,1.0884 C2.4116,1.0884 0.9386,2.5624 0.9386,4.3734 L0.9386,14.7764 C0.9386,16.5884 2.4116,18.0614 4.2236,18.0614 L14.4476,18.0614 C16.2596,18.0614 17.7326,16.5884 17.7326,14.7764 L17.7326,4.3734 C17.7326,2.5624 16.2596,1.0884 14.4476,1.0884 L4.2236,1.0884 Z M14.4476,19.0004 L4.2236,19.0004 C1.8946,19.0004 -0.0004,17.1054 -0.0004,14.7764 L-0.0004,4.3734 C-0.0004,2.0444 1.8946,0.1504 4.2236,0.1504 L14.4476,0.1504 C16.7766,0.1504 18.6716,2.0444 18.6716,4.3734 L18.6716,14.7764 C18.6716,17.1054 16.7766,19.0004 14.4476,19.0004 L14.4476,19.0004 Z" id="Fill-3" fill="#B1B1B2" mask="url(#mask-2)"></path>
            </g>
            <path d="M21.3309,4.6912 L13.9649,11.8672 C13.4209,12.3972 13.1879,13.0472 13.4459,13.3122 L13.5469,13.4152 C13.8059,13.6802 14.4619,13.4622 15.0059,12.9322 L22.3719,5.7562 C22.9159,5.2262 23.1489,4.5762 22.8909,4.3122 L22.7899,4.2082 C22.5309,3.9442 21.8749,4.1612 21.3309,4.6912" id="Fill-6" fill="#FEFEFE"></path>
            <path d="M22.8914,5.3143 L14.4144,13.6613 C14.1904,13.8823 13.8234,13.8823 13.5994,13.6613 L13.2314,13.2993 C13.0074,13.0783 13.0074,12.7173 13.2314,12.4963 L21.7474,4.1103 C21.7614,4.0963 21.7774,4.0853 21.7924,4.0733 L21.5584,3.8083 L12.9924,12.2433 C12.9924,12.2433 12.2554,12.6063 11.7954,14.9193 C11.7954,14.9193 11.6564,15.1913 12.0714,15.1003 C12.4854,15.0093 13.8214,14.7373 14.2354,14.4203 L23.1234,5.5773 L22.8914,5.3143 Z" id="Fill-8" fill="#B1B1B2"></path>
            <path d="M11.917,14.9819 C11.941,14.9819 11.98,14.9809 12.042,14.9669 L12.139,14.9449 C12.591,14.8479 13.791,14.5889 14.152,14.3119 L22.936,5.5709 L22.885,5.5139 L14.511,13.7589 C14.233,14.0329 13.781,14.0319 13.503,13.7589 L13.135,13.3969 C13,13.2639 12.926,13.0859 12.926,12.8979 C12.926,12.7089 13,12.5309 13.135,12.3989 L21.6,4.0629 L21.551,4.0069 L13.053,12.3669 C13.048,12.3689 12.365,12.7599 11.929,14.9459 L11.917,14.9809 L11.917,14.9819 Z M11.928,15.2559 C11.841,15.2559 11.745,15.2359 11.684,15.1569 C11.617,15.0699 11.629,14.9559 11.664,14.8769 C12.092,12.7369 12.771,12.2189 12.908,12.1339 L21.565,3.6089 L21.991,4.0899 L21.844,4.2079 L13.328,12.5939 C13.245,12.6749 13.2,12.7819 13.2,12.8979 C13.2,13.0129 13.245,13.1199 13.328,13.2009 L13.696,13.5639 C13.868,13.7329 14.147,13.7329 14.319,13.5639 L22.898,5.1149 L23.313,5.5829 L14.333,14.5179 C13.909,14.8439 12.709,15.1029 12.197,15.2129 L12.101,15.2339 C12.066,15.2419 12,15.2559 11.928,15.2559 L11.928,15.2559 Z" id="Fill-10" fill="#B1B1B2"></path>
            <path d="M21.7673,3.8424 L21.4883,3.7064 C21.5563,3.5594 21.7383,3.4994 21.8913,3.5734 C22.0443,3.6484 22.1143,3.8304 22.0463,3.9784 C22.0143,4.0494 21.9523,4.1034 21.8773,4.1284 L21.7673,3.8424 Z" id="Fill-12" fill="#B1B1B2"></path>
            <path d="M23.1108,5.3414 L22.8318,5.2054 C22.8998,5.0584 23.0818,4.9984 23.2348,5.0724 C23.3878,5.1474 23.4578,5.3294 23.3898,5.4774 C23.3578,5.5484 23.2958,5.6024 23.2208,5.6274 L23.1108,5.3414 Z" id="Fill-14" fill="#B1B1B2"></path>
            <g id="Group-18" transform="translate(22.000000, 1.850100)">
                <mask id="mask-4" fill="white">
                    <use xlink:href="#path-3"></use>
                </mask>
                <g id="Clip-17"></g>
                <path d="M0.3162,1.3467 C0.3162,1.3467 0.1162,1.2547 0.4052,1.0237 C0.6942,0.7927 1.5912,0.3037 2.3552,0.9927 C2.3552,0.9927 3.2552,1.8787 2.2672,2.9487 C2.2672,2.9487 2.1252,3.1027 2.0262,3.0077 C1.9282,2.9127 0.2262,1.2597 0.2262,1.2597" id="Fill-16" fill="#B1B1B2" mask="url(#mask-4)"></path>
            </g>
        </g>
    </g>
</svg>